%YAML 1.1
%TAG !u! tag:unity3d.com,2011:
--- !u!114 &11400000
MonoBehaviour:
  m_ObjectHideFlags: 0
  m_PrefabParentObject: {fileID: 0}
  m_PrefabInternal: {fileID: 0}
  m_GameObject: {fileID: 0}
  m_Enabled: 1
  m_EditorHideFlags: 0
  m_Script: {fileID: 11500000, guid: f771abaf0b1606e4e88f43190f8565d4, type: 3}
  m_Name: '[Vanilla] Floor'
  m_EditorClassIdentifier: 
  allowMultipleInstances: 0
  scene: {fileID: 102900000, guid: 70fba89bbc517dd43990d5e78d2109f1, type: 3}
  buildID: 0
  loadedScene: {fileID: 0}
  sceneLoadedIsOverridden: 0
  sceneUnloadIsOverridden: 0
  setupLoadedIsOverridden: 0
  setupUnloadedIsOverridden: 0
  activateIsOverridden: 0
  deactivateIsOverridden: 0
